[{"id":1,"carId":"R620IP","until":"2021-08-18T01:34:02Z","price":"2443","photo":"https://encrypted-tbn0.gstatic.com/images?q=tbn:ANd9GcQQxIsvKxnEkkVLGjIHlqfo78bCRQ8SGZvpYQ&usqp=CAU","color":"#2467e3","destination":"9823 Emmet Alley","make":"Buick","model":"LeSabre","year":1988,"locations":null},
  {"id":2,"carId":"V475MP","until":"2020-10-31T02:34:46Z","price":"0742","photo":"https://www.digiseller.ru/preview/497068/p1_2181489_1a4c2055.jpg","color":"#7fb7be","destination":"06201 Scofield Place","make":"Porsche","model":"Cayenne","year":2009,"locations":null},
  {"id":3,"carId":"R835HO","until":"2021-06-12T04:11:09Z","price":"0384","photo":"https://www.digiseller.ru/preview/497068/p1_2181489_1a4c2055.jpg","color":"#2d438e","destination":"193 John Wall Hill","make":"Hyundai","model":"Santa Fe","year":2001,"locations":null},
  {"id":4,"carId":"I840EA","until":"2021-07-12T11:47:55Z","price":"0136","photo":"https://www.digiseller.ru/preview/497068/p1_2181489_1a4c2055.jpg","color":"#76074b","destination":"0262 Granby Street","make":"Lincoln","model":"Continental Mark VII","year":1991,"locations":null},
  {"id":5,"carId":"B143DL","until":"2020-11-03T09:16:44Z","price":"5697","photo":"https://encrypted-tbn0.gstatic.com/images?q=tbn:ANd9GcQ45PWGSd0YbmG9iMnc_IS_1SaNnr7QmO_2HQ&usqp=CAU","color":"#ff0fbc","destination":"8 Warbler Junction","make":"Mercedes-Benz","model":"W126","year":1981,"locations":null},
  {"id":6,"carId":"I507AC","until":"2021-07-05T14:08:56Z","price":"9752","photo":"https://encrypted-tbn0.gstatic.com/images?q=tbn:ANd9GcSmokcuYtY1ZysYoQiViznXRwNOP4mxv8XlEg&usqp=CAU","color":"#3874e6","destination":"6995 Alpine Alley","make":"Mazda","model":"RX-7","year":1987,"locations":null},
  {"id":7,"carId":"N734BH","until":"2021-06-02T16:57:22Z","price":"6587","photo":"https://encrypted-tbn0.gstatic.com/images?q=tbn:ANd9GcSmokcuYtY1ZysYoQiViznXRwNOP4mxv8XlEg&usqp=CAU","color":"#a7687f","destination":"5 Basil Junction","make":"Pontiac","model":"Montana","year":2004,"locations":null},
  {"id":8,"carId":"M151ZD","until":"2021-04-03T05:04:27Z","price":"9108","photo":"https://encrypted-tbn0.gstatic.com/images?q=tbn:ANd9GcSmokcuYtY1ZysYoQiViznXRwNOP4mxv8XlEg&usqp=CAU","color":"#b91c13","destination":"0756 Anzinger Junction","make":"Mitsubishi","model":"Starion","year":1988,"locations":null},
  {"id":9,"carId":"N426KJ","until":"2021-01-19T00:50:19Z","price":"6684","photo":"https://encrypted-tbn0.gstatic.com/images?q=tbn:ANd9GcQQxIsvKxnEkkVLGjIHlqfo78bCRQ8SGZvpYQ&usqp=CAU","color":"#cd9d66","destination":"22 Anzinger Alley","make":"GMC","model":"Savana","year":2011,"locations":null},
  {"id":10,"carId":"L485KL","until":"2020-11-23T10:18:49Z","price":"0309","photo":"https://encrypted-tbn0.gstatic.com/images?q=tbn:ANd9GcQ45PWGSd0YbmG9iMnc_IS_1SaNnr7QmO_2HQ&usqp=CAU","color":"#9ee48b","destination":"6035 Macpherson Trail","make":"Mitsubishi","model":"Mighty Max","year":1992,"locations":null},
  {"id":11,"carId":"M260ZF","until":"2020-09-27T15:13:43Z","price":"9676","photo":"https://www.digiseller.ru/preview/497068/p1_2181489_1a4c2055.jpg","color":"#d9785c","destination":"1 Montana Street","make":"Volkswagen","model":"Golf","year":1995,"locations":null},
  {"id":12,"carId":"C917HF","until":"2020-07-05T04:06:59Z","price":"2013","photo":"https://encrypted-tbn0.gstatic.com/images?q=tbn:ANd9GcSmokcuYtY1ZysYoQiViznXRwNOP4mxv8XlEg&usqp=CAU","color":"#c382f1","destination":"2 Arkansas Lane","make":"Dodge","model":"Caliber","year":2012,"locations":null},
  {"id":13,"carId":"N411WG","until":"2020-11-16T13:44:13Z","price":"7859","photo":"https://www.digiseller.ru/preview/497068/p1_2181489_1a4c2055.jpg","color":"#f1f220","destination":"5965 Crowley Pass","make":"Lincoln","model":"LS","year":2001,"locations":null},
  {"id":14,"carId":"G866DF","until":"2020-09-07T07:57:14Z","price":"6788","photo":"https://www.digiseller.ru/preview/497068/p1_2181489_1a4c2055.jpg","color":"#016ec1","destination":"72379 Prairieview Way","make":"Dodge","model":"Stratus","year":2006,"locations":null},
  {"id":15,"carId":"R580HR","until":"2020-08-17T11:55:00Z","price":"1379","photo":"https://encrypted-tbn0.gstatic.com/images?q=tbn:ANd9GcQQxIsvKxnEkkVLGjIHlqfo78bCRQ8SGZvpYQ&usqp=CAU","color":"#4a1f00","destination":"41 Granby Pass","make":"Toyota","model":"TundraMax","year":2008,"locations":null},
  {"id":16,"carId":"Q287SR","until":"2021-06-05T04:35:06Z","price":"5683","photo":"https://www.digiseller.ru/preview/497068/p1_2181489_1a4c2055.jpg","color":"#4b882d","destination":"7922 Morning Way","make":"GMC","model":"Suburban 2500","year":1998,"locations":null},
  {"id":17,"carId":"A575GI","until":"2021-07-22T17:07:07Z","price":"2209","photo":"https://www.digiseller.ru/preview/497068/p1_2181489_1a4c2055.jpg","color":"#aac436","destination":"0123 Center Avenue","make":"Ford","model":"Mustang","year":1984,"locations":null},
  {"id":18,"carId":"P442SL","until":"2020-07-23T23:06:02Z","price":"6784","photo":"https://encrypted-tbn0.gstatic.com/images?q=tbn:ANd9GcQQxIsvKxnEkkVLGjIHlqfo78bCRQ8SGZvpYQ&usqp=CAU","color":"#a9685a","destination":"765 Lakewood Circle","make":"Mitsubishi","model":"Raider","year":2006,"locations":null},
  {"id":19,"carId":"F840SF","until":"2021-09-04T20:23:48Z","price":"7203","photo":"https://encrypted-tbn0.gstatic.com/images?q=tbn:ANd9GcQQxIsvKxnEkkVLGjIHlqfo78bCRQ8SGZvpYQ&usqp=CAU","color":"#aaafeb","destination":"233 Westend Street","make":"Citroën","model":"CX","year":1989,"locations":null},
  {"id":20,"carId":"T039IR","until":"2020-12-02T14:09:18Z","price":"1918","photo":"https://encrypted-tbn0.gstatic.com/images?q=tbn:ANd9GcQQxIsvKxnEkkVLGjIHlqfo78bCRQ8SGZvpYQ&usqp=CAU","color":"#a9c55a","destination":"072 Express Pass","make":"BMW","model":"M3","year":2012,"locations":null}]